{
	"TomcatUrl":"http://eam-rec.garesetconnexions.sncf.fr:8084",
	"UrlTimeout": 5,
	"JavaProcessName":"java.exe",
	"JavaProcessUser":"GMAO_TASKS",
	"TomcatScheduledTask":"startup_TOMCAT",
	"ScheduledTaskSucessMessage":"SUCCESS",
	"JavaProcessCheckDelay": 10,
	"CronScheduling":"0 */1 * * * *",
	"CheckRestartTimeout": 600,
	"CheckRestartAttemptDelay": 10
}